{
  "manifestVersion": "3.2",
  "admin": {
    "address": "0x8d3cf46294E58511Ce1cCE750ED36c07b0707c0F",
    "txHash": "0xfd6c4da993efe982708375b3334dc34b8eb35263b4af9794ab4085f41a0bd277"
  },
  "proxies": [
    {
      "address": "0x8f431B21908C56f22558120d95c8CA8F7060F70D",
      "txHash": "0xbdb65392b19bf6c81a4b2ad6a972858bacec45b37045be7dade3a74108c5f2cf",
      "kind": "transparent"
    },
    {
      "address": "0x9142960a8a9e0C7280ACD9b062F44b652fE4C75B",
      "txHash": "0xa081d75b1898806a120f6752c64221cb90a5578ff39dc6f90f5300a1153f219d",
      "kind": "transparent"
    },
    {
      "address": "0x8062270fD99fa273c6fF87E41fD701de30064352",
      "txHash": "0x96d696928937ec00431330ea793ec1ba876ddb3ba7e80ceb5584254bee9ccde0",
      "kind": "transparent"
    },
    {
      "address": "0x28Ff19F8bd1Ec745Be5d90E8906c5e8c4afc4261",
      "txHash": "0x109440cc1c45c4a18a6c737bc511e1d3f55901588ae3dc55d6e065dd6b886e84",
      "kind": "transparent"
    },
    {
      "address": "0xB582F5fDC2DB8f754Ea3AFA718313AB644110A82",
      "txHash": "0x32b91181a4dd7ae4b5b29a5c0773fe466ddc5c35c1843179233fc2c154348a07",
      "kind": "transparent"
    },
    {
      "address": "0xDBa5bD654334066008c784932bAB305BFbddCe45",
      "txHash": "0xa59af7cdab968ac5381762050303e7cfb17e4dad1894ae868f7573f351c7d581",
      "kind": "transparent"
    },
    {
      "address": "0x2f2CAD0b9E799C312D49126e226627C33Ac13d8d",
      "txHash": "0x4b2f19279917bc44fdbe9925d291d593ed7bc437d851890af68f2ae988b3f441",
      "kind": "transparent"
    }
  ],
  "impls": {
    "32969a49d19850a4cf96907e6f0f1abb10aacbbf0b7709be4ed9bb41eead1277": {
      "address": "0x9fCb0095457a57B0a54D089440ab37346d293487",
      "txHash": "0xa8a86ca03a2ec311a2d07a78e26dc9689e37b1414e65b3b9310ccafccc19005d",
      "layout": {
        "solcVersion": "0.8.17",
        "storage": [
          {
            "label": "_initialized",
            "offset": 0,
            "slot": "0",
            "type": "t_uint8",
            "contract": "Initializable",
            "src": "@openzeppelin/contracts-upgradeable/proxy/utils/Initializable.sol:62",
            "retypedFrom": "bool"
          },
          {
            "label": "_initializing",
            "offset": 1,
            "slot": "0",
            "type": "t_bool",
            "contract": "Initializable",
            "src": "@openzeppelin/contracts-upgradeable/proxy/utils/Initializable.sol:67"
          },
          {
            "label": "_HASHED_NAME",
            "offset": 0,
            "slot": "1",
            "type": "t_bytes32",
            "contract": "EIP712Upgradeable",
            "src": "@openzeppelin/contracts-upgradeable/utils/cryptography/EIP712Upgradeable.sol:32"
          },
          {
            "label": "_HASHED_VERSION",
            "offset": 0,
            "slot": "2",
            "type": "t_bytes32",
            "contract": "EIP712Upgradeable",
            "src": "@openzeppelin/contracts-upgradeable/utils/cryptography/EIP712Upgradeable.sol:33"
          },
          {
            "label": "__gap",
            "offset": 0,
            "slot": "3",
            "type": "t_array(t_uint256)50_storage",
            "contract": "EIP712Upgradeable",
            "src": "@openzeppelin/contracts-upgradeable/utils/cryptography/EIP712Upgradeable.sol:120"
          },
          {
            "label": "_status",
            "offset": 0,
            "slot": "53",
            "type": "t_uint256",
            "contract": "ReentrancyGuardUpgradeable",
            "src": "@openzeppelin/contracts-upgradeable/security/ReentrancyGuardUpgradeable.sol:38"
          },
          {
            "label": "__gap",
            "offset": 0,
            "slot": "54",
            "type": "t_array(t_uint256)49_storage",
            "contract": "ReentrancyGuardUpgradeable",
            "src": "@openzeppelin/contracts-upgradeable/security/ReentrancyGuardUpgradeable.sol:80"
          },
          {
            "label": "__gap",
            "offset": 0,
            "slot": "103",
            "type": "t_array(t_uint256)50_storage",
            "contract": "ContextUpgradeable",
            "src": "@openzeppelin/contracts-upgradeable/utils/ContextUpgradeable.sol:36"
          },
          {
            "label": "_owner",
            "offset": 0,
            "slot": "153",
            "type": "t_address",
            "contract": "OwnableUpgradeable",
            "src": "@openzeppelin/contracts-upgradeable/access/OwnableUpgradeable.sol:22"
          },
          {
            "label": "__gap",
            "offset": 0,
            "slot": "154",
            "type": "t_array(t_uint256)49_storage",
            "contract": "OwnableUpgradeable",
            "src": "@openzeppelin/contracts-upgradeable/access/OwnableUpgradeable.sol:94"
          },
          {
            "label": "royaltyRegistry",
            "offset": 0,
            "slot": "203",
            "type": "t_contract(IRoyalty)9465",
            "contract": "Marketplace",
            "src": "contracts/marketplace/Marketplace.sol:20"
          },
          {
            "label": "marketPayee",
            "offset": 0,
            "slot": "204",
            "type": "t_address",
            "contract": "Marketplace",
            "src": "contracts/marketplace/Marketplace.sol:21"
          },
          {
            "label": "marketPercent",
            "offset": 20,
            "slot": "204",
            "type": "t_uint16",
            "contract": "Marketplace",
            "src": "contracts/marketplace/Marketplace.sol:22"
          },
          {
            "label": "reward",
            "offset": 0,
            "slot": "205",
            "type": "t_contract(IReward)8871",
            "contract": "Marketplace",
            "src": "contracts/marketplace/Marketplace.sol:23"
          }
        ],
        "types": {
          "t_address": {
            "label": "address",
            "numberOfBytes": "20"
          },
          "t_array(t_uint256)49_storage": {
            "label": "uint256[49]",
            "numberOfBytes": "1568"
          },
          "t_array(t_uint256)50_storage": {
            "label": "uint256[50]",
            "numberOfBytes": "1600"
          },
          "t_bool": {
            "label": "bool",
            "numberOfBytes": "1"
          },
          "t_bytes32": {
            "label": "bytes32",
            "numberOfBytes": "32"
          },
          "t_contract(IReward)8871": {
            "label": "contract IReward",
            "numberOfBytes": "20"
          },
          "t_contract(IRoyalty)9465": {
            "label": "contract IRoyalty",
            "numberOfBytes": "20"
          },
          "t_uint16": {
            "label": "uint16",
            "numberOfBytes": "2"
          },
          "t_uint256": {
            "label": "uint256",
            "numberOfBytes": "32"
          },
          "t_uint8": {
            "label": "uint8",
            "numberOfBytes": "1"
          }
        }
      }
    },
    "3db9961075a0e14ad6fc83c4e435818490c8b9be0973a2322903b2dcfa2b29d9": {
      "address": "0xF4F9491f21C37eE1699A0E9a741B6264252dFcd1",
      "txHash": "0x20c9316a99e4fccc6fb90475210bb5324d5e977d58afa46402459887827f14dc",
      "layout": {
        "solcVersion": "0.8.17",
        "storage": [
          {
            "label": "_initialized",
            "offset": 0,
            "slot": "0",
            "type": "t_uint8",
            "contract": "Initializable",
            "src": "@openzeppelin/contracts-upgradeable/proxy/utils/Initializable.sol:62",
            "retypedFrom": "bool"
          },
          {
            "label": "_initializing",
            "offset": 1,
            "slot": "0",
            "type": "t_bool",
            "contract": "Initializable",
            "src": "@openzeppelin/contracts-upgradeable/proxy/utils/Initializable.sol:67"
          },
          {
            "label": "_status",
            "offset": 0,
            "slot": "1",
            "type": "t_uint256",
            "contract": "ReentrancyGuardUpgradeable",
            "src": "@openzeppelin/contracts-upgradeable/security/ReentrancyGuardUpgradeable.sol:38"
          },
          {
            "label": "__gap",
            "offset": 0,
            "slot": "2",
            "type": "t_array(t_uint256)49_storage",
            "contract": "ReentrancyGuardUpgradeable",
            "src": "@openzeppelin/contracts-upgradeable/security/ReentrancyGuardUpgradeable.sol:80"
          },
          {
            "label": "__gap",
            "offset": 0,
            "slot": "51",
            "type": "t_array(t_uint256)50_storage",
            "contract": "ContextUpgradeable",
            "src": "@openzeppelin/contracts-upgradeable/utils/ContextUpgradeable.sol:36"
          },
          {
            "label": "_owner",
            "offset": 0,
            "slot": "101",
            "type": "t_address",
            "contract": "OwnableUpgradeable",
            "src": "@openzeppelin/contracts-upgradeable/access/OwnableUpgradeable.sol:22"
          },
          {
            "label": "__gap",
            "offset": 0,
            "slot": "102",
            "type": "t_array(t_uint256)49_storage",
            "contract": "OwnableUpgradeable",
            "src": "@openzeppelin/contracts-upgradeable/access/OwnableUpgradeable.sol:94"
          },
          {
            "label": "_HASHED_NAME",
            "offset": 0,
            "slot": "151",
            "type": "t_bytes32",
            "contract": "EIP712Upgradeable",
            "src": "@openzeppelin/contracts-upgradeable/utils/cryptography/EIP712Upgradeable.sol:32"
          },
          {
            "label": "_HASHED_VERSION",
            "offset": 0,
            "slot": "152",
            "type": "t_bytes32",
            "contract": "EIP712Upgradeable",
            "src": "@openzeppelin/contracts-upgradeable/utils/cryptography/EIP712Upgradeable.sol:33"
          },
          {
            "label": "__gap",
            "offset": 0,
            "slot": "153",
            "type": "t_array(t_uint256)50_storage",
            "contract": "EIP712Upgradeable",
            "src": "@openzeppelin/contracts-upgradeable/utils/cryptography/EIP712Upgradeable.sol:120"
          },
          {
            "label": "royaltyRegistry",
            "offset": 0,
            "slot": "203",
            "type": "t_contract(IRoyalty)9349",
            "contract": "Offer",
            "src": "contracts/offer/Offer.sol:21"
          },
          {
            "label": "escrow",
            "offset": 0,
            "slot": "204",
            "type": "t_contract(IEscrow)6753",
            "contract": "Offer",
            "src": "contracts/offer/Offer.sol:22"
          },
          {
            "label": "marketPayee",
            "offset": 0,
            "slot": "205",
            "type": "t_address",
            "contract": "Offer",
            "src": "contracts/offer/Offer.sol:23"
          },
          {
            "label": "marketPercent",
            "offset": 20,
            "slot": "205",
            "type": "t_uint16",
            "contract": "Offer",
            "src": "contracts/offer/Offer.sol:24"
          },
          {
            "label": "reward",
            "offset": 0,
            "slot": "206",
            "type": "t_contract(IReward)8755",
            "contract": "Offer",
            "src": "contracts/offer/Offer.sol:25"
          }
        ],
        "types": {
          "t_address": {
            "label": "address",
            "numberOfBytes": "20"
          },
          "t_array(t_uint256)49_storage": {
            "label": "uint256[49]",
            "numberOfBytes": "1568"
          },
          "t_array(t_uint256)50_storage": {
            "label": "uint256[50]",
            "numberOfBytes": "1600"
          },
          "t_bool": {
            "label": "bool",
            "numberOfBytes": "1"
          },
          "t_bytes32": {
            "label": "bytes32",
            "numberOfBytes": "32"
          },
          "t_contract(IEscrow)6753": {
            "label": "contract IEscrow",
            "numberOfBytes": "20"
          },
          "t_contract(IReward)8755": {
            "label": "contract IReward",
            "numberOfBytes": "20"
          },
          "t_contract(IRoyalty)9349": {
            "label": "contract IRoyalty",
            "numberOfBytes": "20"
          },
          "t_uint16": {
            "label": "uint16",
            "numberOfBytes": "2"
          },
          "t_uint256": {
            "label": "uint256",
            "numberOfBytes": "32"
          },
          "t_uint8": {
            "label": "uint8",
            "numberOfBytes": "1"
          }
        }
      }
    },
    "4dfbb4585a77e4c07b5e9371cecc5ec56896718d0adbbc305556945414609e61": {
      "address": "0x60415C67e161e1f63ED0468Cc6b7c22C0645952B",
      "txHash": "0xd08ea7addae962e755ba0868ace9f0b6cbc2545e8267c0674159ce6670dec490",
      "layout": {
        "solcVersion": "0.8.17",
        "storage": [
          {
            "label": "_initialized",
            "offset": 0,
            "slot": "0",
            "type": "t_uint8",
            "contract": "Initializable",
            "src": "@openzeppelin/contracts-upgradeable/proxy/utils/Initializable.sol:62",
            "retypedFrom": "bool"
          },
          {
            "label": "_initializing",
            "offset": 1,
            "slot": "0",
            "type": "t_bool",
            "contract": "Initializable",
            "src": "@openzeppelin/contracts-upgradeable/proxy/utils/Initializable.sol:67"
          },
          {
            "label": "__gap",
            "offset": 0,
            "slot": "1",
            "type": "t_array(t_uint256)50_storage",
            "contract": "ContextUpgradeable",
            "src": "@openzeppelin/contracts-upgradeable/utils/ContextUpgradeable.sol:36"
          },
          {
            "label": "_status",
            "offset": 0,
            "slot": "51",
            "type": "t_uint256",
            "contract": "ReentrancyGuardUpgradeable",
            "src": "@openzeppelin/contracts-upgradeable/security/ReentrancyGuardUpgradeable.sol:38"
          },
          {
            "label": "__gap",
            "offset": 0,
            "slot": "52",
            "type": "t_array(t_uint256)49_storage",
            "contract": "ReentrancyGuardUpgradeable",
            "src": "@openzeppelin/contracts-upgradeable/security/ReentrancyGuardUpgradeable.sol:80"
          },
          {
            "label": "_owner",
            "offset": 0,
            "slot": "101",
            "type": "t_address",
            "contract": "OwnableUpgradeable",
            "src": "@openzeppelin/contracts-upgradeable/access/OwnableUpgradeable.sol:22"
          },
          {
            "label": "__gap",
            "offset": 0,
            "slot": "102",
            "type": "t_array(t_uint256)49_storage",
            "contract": "OwnableUpgradeable",
            "src": "@openzeppelin/contracts-upgradeable/access/OwnableUpgradeable.sol:94"
          },
          {
            "label": "_balances",
            "offset": 0,
            "slot": "151",
            "type": "t_mapping(t_address,t_uint256)",
            "contract": "Escrow",
            "src": "contracts/escrow/Escrow.sol:12"
          },
          {
            "label": "_allowances",
            "offset": 0,
            "slot": "152",
            "type": "t_mapping(t_address,t_mapping(t_address,t_uint256))",
            "contract": "Escrow",
            "src": "contracts/escrow/Escrow.sol:14"
          },
          {
            "label": "_trusteds",
            "offset": 0,
            "slot": "153",
            "type": "t_mapping(t_address,t_bool)",
            "contract": "Escrow",
            "src": "contracts/escrow/Escrow.sol:15"
          },
          {
            "label": "__gap",
            "offset": 0,
            "slot": "154",
            "type": "t_array(t_uint256)45_storage",
            "contract": "Escrow",
            "src": "contracts/escrow/Escrow.sol:137"
          }
        ],
        "types": {
          "t_address": {
            "label": "address",
            "numberOfBytes": "20"
          },
          "t_array(t_uint256)45_storage": {
            "label": "uint256[45]",
            "numberOfBytes": "1440"
          },
          "t_array(t_uint256)49_storage": {
            "label": "uint256[49]",
            "numberOfBytes": "1568"
          },
          "t_array(t_uint256)50_storage": {
            "label": "uint256[50]",
            "numberOfBytes": "1600"
          },
          "t_bool": {
            "label": "bool",
            "numberOfBytes": "1"
          },
          "t_mapping(t_address,t_bool)": {
            "label": "mapping(address => bool)",
            "numberOfBytes": "32"
          },
          "t_mapping(t_address,t_mapping(t_address,t_uint256))": {
            "label": "mapping(address => mapping(address => uint256))",
            "numberOfBytes": "32"
          },
          "t_mapping(t_address,t_uint256)": {
            "label": "mapping(address => uint256)",
            "numberOfBytes": "32"
          },
          "t_uint256": {
            "label": "uint256",
            "numberOfBytes": "32"
          },
          "t_uint8": {
            "label": "uint8",
            "numberOfBytes": "1"
          }
        }
      }
    },
    "4118234c3d0925056d558bd7eecaaf8535e56e77cd83fb08f76babbd32e5280e": {
      "address": "0x766f7E1d3ee61656443382ab2251cC0A52466Ba3",
      "txHash": "0x501acb5d6bcf18adee4e798333c7bb81c5418a0bd3d5a1ded0981a18bd3c391e",
      "layout": {
        "solcVersion": "0.8.17",
        "storage": [
          {
            "label": "_initialized",
            "offset": 0,
            "slot": "0",
            "type": "t_uint8",
            "contract": "Initializable",
            "src": "@openzeppelin/contracts-upgradeable/proxy/utils/Initializable.sol:62",
            "retypedFrom": "bool"
          },
          {
            "label": "_initializing",
            "offset": 1,
            "slot": "0",
            "type": "t_bool",
            "contract": "Initializable",
            "src": "@openzeppelin/contracts-upgradeable/proxy/utils/Initializable.sol:67"
          },
          {
            "label": "__gap",
            "offset": 0,
            "slot": "1",
            "type": "t_array(t_uint256)50_storage",
            "contract": "ContextUpgradeable",
            "src": "@openzeppelin/contracts-upgradeable/utils/ContextUpgradeable.sol:36"
          },
          {
            "label": "_owner",
            "offset": 0,
            "slot": "51",
            "type": "t_address",
            "contract": "OwnableUpgradeable",
            "src": "@openzeppelin/contracts-upgradeable/access/OwnableUpgradeable.sol:22"
          },
          {
            "label": "__gap",
            "offset": 0,
            "slot": "52",
            "type": "t_array(t_uint256)49_storage",
            "contract": "OwnableUpgradeable",
            "src": "@openzeppelin/contracts-upgradeable/access/OwnableUpgradeable.sol:94"
          },
          {
            "label": "collectionPayee",
            "offset": 0,
            "slot": "101",
            "type": "t_mapping(t_address,t_address)",
            "contract": "Royalty",
            "src": "contracts/royalty/Royalty.sol:15"
          },
          {
            "label": "collectionRoyalty",
            "offset": 0,
            "slot": "102",
            "type": "t_mapping(t_address,t_uint16)",
            "contract": "Royalty",
            "src": "contracts/royalty/Royalty.sol:16"
          }
        ],
        "types": {
          "t_address": {
            "label": "address",
            "numberOfBytes": "20"
          },
          "t_array(t_uint256)49_storage": {
            "label": "uint256[49]",
            "numberOfBytes": "1568"
          },
          "t_array(t_uint256)50_storage": {
            "label": "uint256[50]",
            "numberOfBytes": "1600"
          },
          "t_bool": {
            "label": "bool",
            "numberOfBytes": "1"
          },
          "t_mapping(t_address,t_address)": {
            "label": "mapping(address => address)",
            "numberOfBytes": "32"
          },
          "t_mapping(t_address,t_uint16)": {
            "label": "mapping(address => uint16)",
            "numberOfBytes": "32"
          },
          "t_uint16": {
            "label": "uint16",
            "numberOfBytes": "2"
          },
          "t_uint256": {
            "label": "uint256",
            "numberOfBytes": "32"
          },
          "t_uint8": {
            "label": "uint8",
            "numberOfBytes": "1"
          }
        }
      }
    },
    "05e0357d08f9e7fcd8ede947d09e776c5f713cd57389f6b9a1c0610657849d6b": {
      "address": "0x7f031ed4C9D2272C881973CB9F58989263b6cB20",
      "txHash": "0x0597d4c3a083f8b75436e8fa124f1991c0b1a0ecfa39d67ea90050a8066d74e1",
      "layout": {
        "solcVersion": "0.8.17",
        "storage": [
          {
            "label": "_initialized",
            "offset": 0,
            "slot": "0",
            "type": "t_uint8",
            "contract": "Initializable",
            "src": "@openzeppelin/contracts-upgradeable/proxy/utils/Initializable.sol:62",
            "retypedFrom": "bool"
          },
          {
            "label": "_initializing",
            "offset": 1,
            "slot": "0",
            "type": "t_bool",
            "contract": "Initializable",
            "src": "@openzeppelin/contracts-upgradeable/proxy/utils/Initializable.sol:67"
          },
          {
            "label": "__gap",
            "offset": 0,
            "slot": "1",
            "type": "t_array(t_uint256)50_storage",
            "contract": "ContextUpgradeable",
            "src": "@openzeppelin/contracts-upgradeable/utils/ContextUpgradeable.sol:36"
          },
          {
            "label": "_owner",
            "offset": 0,
            "slot": "51",
            "type": "t_address",
            "contract": "OwnableUpgradeable",
            "src": "@openzeppelin/contracts-upgradeable/access/OwnableUpgradeable.sol:22"
          },
          {
            "label": "__gap",
            "offset": 0,
            "slot": "52",
            "type": "t_array(t_uint256)49_storage",
            "contract": "OwnableUpgradeable",
            "src": "@openzeppelin/contracts-upgradeable/access/OwnableUpgradeable.sol:94"
          },
          {
            "label": "rewardToken",
            "offset": 0,
            "slot": "101",
            "type": "t_contract(IERC20)1016",
            "contract": "Reward",
            "src": "contracts/reward/Reward.sol:14"
          },
          {
            "label": "tiers",
            "offset": 0,
            "slot": "102",
            "type": "t_mapping(t_uint256,t_struct(Tier)1026_storage)",
            "contract": "Reward",
            "src": "contracts/reward/Reward.sol:15"
          },
          {
            "label": "collectionToPayee",
            "offset": 0,
            "slot": "103",
            "type": "t_mapping(t_address,t_address)",
            "contract": "Reward",
            "src": "contracts/reward/Reward.sol:16"
          },
          {
            "label": "collectionToTier",
            "offset": 0,
            "slot": "104",
            "type": "t_mapping(t_address,t_uint256)",
            "contract": "Reward",
            "src": "contracts/reward/Reward.sol:17"
          },
          {
            "label": "balanceOf",
            "offset": 0,
            "slot": "105",
            "type": "t_mapping(t_address,t_uint256)",
            "contract": "Reward",
            "src": "contracts/reward/Reward.sol:18"
          },
          {
            "label": "trusted",
            "offset": 0,
            "slot": "106",
            "type": "t_mapping(t_address,t_bool)",
            "contract": "Reward",
            "src": "contracts/reward/Reward.sol:19"
          },
          {
            "label": "totalBalance",
            "offset": 0,
            "slot": "107",
            "type": "t_uint256",
            "contract": "Reward",
            "src": "contracts/reward/Reward.sol:20"
          }
        ],
        "types": {
          "t_address": {
            "label": "address",
            "numberOfBytes": "20"
          },
          "t_array(t_uint256)49_storage": {
            "label": "uint256[49]",
            "numberOfBytes": "1568"
          },
          "t_array(t_uint256)50_storage": {
            "label": "uint256[50]",
            "numberOfBytes": "1600"
          },
          "t_bool": {
            "label": "bool",
            "numberOfBytes": "1"
          },
          "t_contract(IERC20)1016": {
            "label": "contract IERC20",
            "numberOfBytes": "20"
          },
          "t_mapping(t_address,t_address)": {
            "label": "mapping(address => address)",
            "numberOfBytes": "32"
          },
          "t_mapping(t_address,t_bool)": {
            "label": "mapping(address => bool)",
            "numberOfBytes": "32"
          },
          "t_mapping(t_address,t_uint256)": {
            "label": "mapping(address => uint256)",
            "numberOfBytes": "32"
          },
          "t_mapping(t_uint256,t_struct(Tier)1026_storage)": {
            "label": "mapping(uint256 => struct IReward.Tier)",
            "numberOfBytes": "32"
          },
          "t_struct(Tier)1026_storage": {
            "label": "struct IReward.Tier",
            "members": [
              {
                "label": "seller",
                "type": "t_uint256",
                "offset": 0,
                "slot": "0"
              },
              {
                "label": "buyer",
                "type": "t_uint256",
                "offset": 0,
                "slot": "1"
              },
              {
                "label": "collectionOwner",
                "type": "t_uint256",
                "offset": 0,
                "slot": "2"
              }
            ],
            "numberOfBytes": "96"
          },
          "t_uint256": {
            "label": "uint256",
            "numberOfBytes": "32"
          },
          "t_uint8": {
            "label": "uint8",
            "numberOfBytes": "1"
          }
        }
      }
    },
    "0ff02ab20128b448f61d57f446649b9813d0010b8b42cf187d59644212bed6a9": {
      "address": "0x343516F7e3Ba75F9Cf11b9AF7B44f180341af9FA",
      "txHash": "0x70634dff48430fbe5036f011f60444071077e6e03bd89079fc5572346c730682",
      "layout": {
        "solcVersion": "0.8.17",
        "storage": [
          {
            "label": "_initialized",
            "offset": 0,
            "slot": "0",
            "type": "t_uint8",
            "contract": "Initializable",
            "src": "@openzeppelin/contracts-upgradeable/proxy/utils/Initializable.sol:62",
            "retypedFrom": "bool"
          },
          {
            "label": "_initializing",
            "offset": 1,
            "slot": "0",
            "type": "t_bool",
            "contract": "Initializable",
            "src": "@openzeppelin/contracts-upgradeable/proxy/utils/Initializable.sol:67"
          },
          {
            "label": "_status",
            "offset": 0,
            "slot": "1",
            "type": "t_uint256",
            "contract": "ReentrancyGuardUpgradeable",
            "src": "@openzeppelin/contracts-upgradeable/security/ReentrancyGuardUpgradeable.sol:38"
          },
          {
            "label": "__gap",
            "offset": 0,
            "slot": "2",
            "type": "t_array(t_uint256)49_storage",
            "contract": "ReentrancyGuardUpgradeable",
            "src": "@openzeppelin/contracts-upgradeable/security/ReentrancyGuardUpgradeable.sol:80"
          },
          {
            "label": "__gap",
            "offset": 0,
            "slot": "51",
            "type": "t_array(t_uint256)50_storage",
            "contract": "ContextUpgradeable",
            "src": "@openzeppelin/contracts-upgradeable/utils/ContextUpgradeable.sol:36"
          },
          {
            "label": "_owner",
            "offset": 0,
            "slot": "101",
            "type": "t_address",
            "contract": "OwnableUpgradeable",
            "src": "@openzeppelin/contracts-upgradeable/access/OwnableUpgradeable.sol:22"
          },
          {
            "label": "__gap",
            "offset": 0,
            "slot": "102",
            "type": "t_array(t_uint256)49_storage",
            "contract": "OwnableUpgradeable",
            "src": "@openzeppelin/contracts-upgradeable/access/OwnableUpgradeable.sol:94"
          },
          {
            "label": "_HASHED_NAME",
            "offset": 0,
            "slot": "151",
            "type": "t_bytes32",
            "contract": "EIP712Upgradeable",
            "src": "@openzeppelin/contracts-upgradeable/utils/cryptography/EIP712Upgradeable.sol:32"
          },
          {
            "label": "_HASHED_VERSION",
            "offset": 0,
            "slot": "152",
            "type": "t_bytes32",
            "contract": "EIP712Upgradeable",
            "src": "@openzeppelin/contracts-upgradeable/utils/cryptography/EIP712Upgradeable.sol:33"
          },
          {
            "label": "__gap",
            "offset": 0,
            "slot": "153",
            "type": "t_array(t_uint256)50_storage",
            "contract": "EIP712Upgradeable",
            "src": "@openzeppelin/contracts-upgradeable/utils/cryptography/EIP712Upgradeable.sol:120"
          },
          {
            "label": "claimed",
            "offset": 0,
            "slot": "203",
            "type": "t_mapping(t_uint256,t_mapping(t_address,t_bool))",
            "contract": "Quest",
            "src": "contracts/quest/Quest.sol:19"
          },
          {
            "label": "signerAddress",
            "offset": 0,
            "slot": "204",
            "type": "t_address",
            "contract": "Quest",
            "src": "contracts/quest/Quest.sol:21"
          }
        ],
        "types": {
          "t_address": {
            "label": "address",
            "numberOfBytes": "20"
          },
          "t_array(t_uint256)49_storage": {
            "label": "uint256[49]",
            "numberOfBytes": "1568"
          },
          "t_array(t_uint256)50_storage": {
            "label": "uint256[50]",
            "numberOfBytes": "1600"
          },
          "t_bool": {
            "label": "bool",
            "numberOfBytes": "1"
          },
          "t_bytes32": {
            "label": "bytes32",
            "numberOfBytes": "32"
          },
          "t_mapping(t_address,t_bool)": {
            "label": "mapping(address => bool)",
            "numberOfBytes": "32"
          },
          "t_mapping(t_uint256,t_mapping(t_address,t_bool))": {
            "label": "mapping(uint256 => mapping(address => bool))",
            "numberOfBytes": "32"
          },
          "t_uint256": {
            "label": "uint256",
            "numberOfBytes": "32"
          },
          "t_uint8": {
            "label": "uint8",
            "numberOfBytes": "1"
          }
        }
      }
    },
    "5f318e816ae1938966b37fd8f333bb8fecef85145d7d5c25c702d2fede9ca3a2": {
      "address": "0x18420E9bBEc9ad69927697dfC346d4F45f467759",
      "txHash": "0xbe33a11d9508d97d061626383086395481b3d4b5de26cec55ca9841c191aef83",
      "layout": {
        "solcVersion": "0.8.17",
        "storage": [
          {
            "label": "_initialized",
            "offset": 0,
            "slot": "0",
            "type": "t_uint8",
            "contract": "Initializable",
            "src": "@openzeppelin/contracts-upgradeable/proxy/utils/Initializable.sol:62",
            "retypedFrom": "bool"
          },
          {
            "label": "_initializing",
            "offset": 1,
            "slot": "0",
            "type": "t_bool",
            "contract": "Initializable",
            "src": "@openzeppelin/contracts-upgradeable/proxy/utils/Initializable.sol:67"
          },
          {
            "label": "_status",
            "offset": 0,
            "slot": "1",
            "type": "t_uint256",
            "contract": "ReentrancyGuardUpgradeable",
            "src": "@openzeppelin/contracts-upgradeable/security/ReentrancyGuardUpgradeable.sol:38"
          },
          {
            "label": "__gap",
            "offset": 0,
            "slot": "2",
            "type": "t_array(t_uint256)49_storage",
            "contract": "ReentrancyGuardUpgradeable",
            "src": "@openzeppelin/contracts-upgradeable/security/ReentrancyGuardUpgradeable.sol:80"
          },
          {
            "label": "__gap",
            "offset": 0,
            "slot": "51",
            "type": "t_array(t_uint256)50_storage",
            "contract": "ContextUpgradeable",
            "src": "@openzeppelin/contracts-upgradeable/utils/ContextUpgradeable.sol:36"
          },
          {
            "label": "_owner",
            "offset": 0,
            "slot": "101",
            "type": "t_address",
            "contract": "OwnableUpgradeable",
            "src": "@openzeppelin/contracts-upgradeable/access/OwnableUpgradeable.sol:22"
          },
          {
            "label": "__gap",
            "offset": 0,
            "slot": "102",
            "type": "t_array(t_uint256)49_storage",
            "contract": "OwnableUpgradeable",
            "src": "@openzeppelin/contracts-upgradeable/access/OwnableUpgradeable.sol:94"
          },
          {
            "label": "_HASHED_NAME",
            "offset": 0,
            "slot": "151",
            "type": "t_bytes32",
            "contract": "EIP712Upgradeable",
            "src": "@openzeppelin/contracts-upgradeable/utils/cryptography/EIP712Upgradeable.sol:32"
          },
          {
            "label": "_HASHED_VERSION",
            "offset": 0,
            "slot": "152",
            "type": "t_bytes32",
            "contract": "EIP712Upgradeable",
            "src": "@openzeppelin/contracts-upgradeable/utils/cryptography/EIP712Upgradeable.sol:33"
          },
          {
            "label": "__gap",
            "offset": 0,
            "slot": "153",
            "type": "t_array(t_uint256)50_storage",
            "contract": "EIP712Upgradeable",
            "src": "@openzeppelin/contracts-upgradeable/utils/cryptography/EIP712Upgradeable.sol:120"
          },
          {
            "label": "royaltyRegistry",
            "offset": 0,
            "slot": "203",
            "type": "t_contract(IRoyalty)9465",
            "contract": "Offer",
            "src": "contracts/offer/Offer.sol:21"
          },
          {
            "label": "escrow",
            "offset": 0,
            "slot": "204",
            "type": "t_contract(IEscrow)6753",
            "contract": "Offer",
            "src": "contracts/offer/Offer.sol:22"
          },
          {
            "label": "marketPayee",
            "offset": 0,
            "slot": "205",
            "type": "t_address",
            "contract": "Offer",
            "src": "contracts/offer/Offer.sol:23"
          },
          {
            "label": "marketPercent",
            "offset": 20,
            "slot": "205",
            "type": "t_uint16",
            "contract": "Offer",
            "src": "contracts/offer/Offer.sol:24"
          },
          {
            "label": "reward",
            "offset": 0,
            "slot": "206",
            "type": "t_contract(IReward)8871",
            "contract": "Offer",
            "src": "contracts/offer/Offer.sol:25"
          }
        ],
        "types": {
          "t_address": {
            "label": "address",
            "numberOfBytes": "20"
          },
          "t_array(t_uint256)49_storage": {
            "label": "uint256[49]",
            "numberOfBytes": "1568"
          },
          "t_array(t_uint256)50_storage": {
            "label": "uint256[50]",
            "numberOfBytes": "1600"
          },
          "t_bool": {
            "label": "bool",
            "numberOfBytes": "1"
          },
          "t_bytes32": {
            "label": "bytes32",
            "numberOfBytes": "32"
          },
          "t_contract(IEscrow)6753": {
            "label": "contract IEscrow",
            "numberOfBytes": "20"
          },
          "t_contract(IReward)8871": {
            "label": "contract IReward",
            "numberOfBytes": "20"
          },
          "t_contract(IRoyalty)9465": {
            "label": "contract IRoyalty",
            "numberOfBytes": "20"
          },
          "t_uint16": {
            "label": "uint16",
            "numberOfBytes": "2"
          },
          "t_uint256": {
            "label": "uint256",
            "numberOfBytes": "32"
          },
          "t_uint8": {
            "label": "uint8",
            "numberOfBytes": "1"
          }
        }
      }
    },
    "7d9262e32dbdcc7403eef08cd0e300f99cb290a6b814fcfa2c2699718f95b361": {
      "address": "0x49a2d27929e7c5a7a53D084eC493623E0F509E61",
      "txHash": "0x1d1c985019a2cbcbdaa9dada1f018407ed9b78e4c7648408e906c1466dfa7d79",
      "layout": {
        "solcVersion": "0.8.17",
        "storage": [
          {
            "label": "_initialized",
            "offset": 0,
            "slot": "0",
            "type": "t_uint8",
            "contract": "Initializable",
            "src": "@openzeppelin/contracts-upgradeable/proxy/utils/Initializable.sol:62",
            "retypedFrom": "bool"
          },
          {
            "label": "_initializing",
            "offset": 1,
            "slot": "0",
            "type": "t_bool",
            "contract": "Initializable",
            "src": "@openzeppelin/contracts-upgradeable/proxy/utils/Initializable.sol:67"
          },
          {
            "label": "_status",
            "offset": 0,
            "slot": "1",
            "type": "t_uint256",
            "contract": "ReentrancyGuardUpgradeable",
            "src": "@openzeppelin/contracts-upgradeable/security/ReentrancyGuardUpgradeable.sol:38"
          },
          {
            "label": "__gap",
            "offset": 0,
            "slot": "2",
            "type": "t_array(t_uint256)49_storage",
            "contract": "ReentrancyGuardUpgradeable",
            "src": "@openzeppelin/contracts-upgradeable/security/ReentrancyGuardUpgradeable.sol:80"
          },
          {
            "label": "__gap",
            "offset": 0,
            "slot": "51",
            "type": "t_array(t_uint256)50_storage",
            "contract": "ContextUpgradeable",
            "src": "@openzeppelin/contracts-upgradeable/utils/ContextUpgradeable.sol:36"
          },
          {
            "label": "_owner",
            "offset": 0,
            "slot": "101",
            "type": "t_address",
            "contract": "OwnableUpgradeable",
            "src": "@openzeppelin/contracts-upgradeable/access/OwnableUpgradeable.sol:22"
          },
          {
            "label": "__gap",
            "offset": 0,
            "slot": "102",
            "type": "t_array(t_uint256)49_storage",
            "contract": "OwnableUpgradeable",
            "src": "@openzeppelin/contracts-upgradeable/access/OwnableUpgradeable.sol:94"
          },
          {
            "label": "_HASHED_NAME",
            "offset": 0,
            "slot": "151",
            "type": "t_bytes32",
            "contract": "EIP712Upgradeable",
            "src": "@openzeppelin/contracts-upgradeable/utils/cryptography/EIP712Upgradeable.sol:32"
          },
          {
            "label": "_HASHED_VERSION",
            "offset": 0,
            "slot": "152",
            "type": "t_bytes32",
            "contract": "EIP712Upgradeable",
            "src": "@openzeppelin/contracts-upgradeable/utils/cryptography/EIP712Upgradeable.sol:33"
          },
          {
            "label": "__gap",
            "offset": 0,
            "slot": "153",
            "type": "t_array(t_uint256)50_storage",
            "contract": "EIP712Upgradeable",
            "src": "@openzeppelin/contracts-upgradeable/utils/cryptography/EIP712Upgradeable.sol:120"
          },
          {
            "label": "claimed",
            "offset": 0,
            "slot": "203",
            "type": "t_mapping(t_uint256,t_mapping(t_address,t_bool))",
            "contract": "Quest",
            "src": "contracts/quest/Quest.sol:19"
          },
          {
            "label": "signerAddress",
            "offset": 0,
            "slot": "204",
            "type": "t_address",
            "contract": "Quest",
            "src": "contracts/quest/Quest.sol:21"
          },
          {
            "label": "claimedIds",
            "offset": 0,
            "slot": "205",
            "type": "t_mapping(t_uint256,t_bool)",
            "contract": "Quest",
            "src": "contracts/quest/Quest.sol:23"
          }
        ],
        "types": {
          "t_address": {
            "label": "address",
            "numberOfBytes": "20"
          },
          "t_array(t_uint256)49_storage": {
            "label": "uint256[49]",
            "numberOfBytes": "1568"
          },
          "t_array(t_uint256)50_storage": {
            "label": "uint256[50]",
            "numberOfBytes": "1600"
          },
          "t_bool": {
            "label": "bool",
            "numberOfBytes": "1"
          },
          "t_bytes32": {
            "label": "bytes32",
            "numberOfBytes": "32"
          },
          "t_mapping(t_address,t_bool)": {
            "label": "mapping(address => bool)",
            "numberOfBytes": "32"
          },
          "t_mapping(t_uint256,t_bool)": {
            "label": "mapping(uint256 => bool)",
            "numberOfBytes": "32"
          },
          "t_mapping(t_uint256,t_mapping(t_address,t_bool))": {
            "label": "mapping(uint256 => mapping(address => bool))",
            "numberOfBytes": "32"
          },
          "t_uint256": {
            "label": "uint256",
            "numberOfBytes": "32"
          },
          "t_uint8": {
            "label": "uint8",
            "numberOfBytes": "1"
          }
        }
      }
    },
    "45e9985be013977e66824bda31379dff64e02ec26923c00ad6aa26c5c651f6d8": {
      "address": "0x7387f45953E1f32973b80253cd4a9114a0Be401f",
      "txHash": "0xa193ee863d9357d9238b63e7fb27d22d689c03fdcec052f8659c61ec8d24f4cf",
      "layout": {
        "solcVersion": "0.8.17",
        "storage": [
          {
            "label": "_initialized",
            "offset": 0,
            "slot": "0",
            "type": "t_uint8",
            "contract": "Initializable",
            "src": "@openzeppelin/contracts-upgradeable/proxy/utils/Initializable.sol:62",
            "retypedFrom": "bool"
          },
          {
            "label": "_initializing",
            "offset": 1,
            "slot": "0",
            "type": "t_bool",
            "contract": "Initializable",
            "src": "@openzeppelin/contracts-upgradeable/proxy/utils/Initializable.sol:67"
          },
          {
            "label": "__gap",
            "offset": 0,
            "slot": "1",
            "type": "t_array(t_uint256)50_storage",
            "contract": "ContextUpgradeable",
            "src": "@openzeppelin/contracts-upgradeable/utils/ContextUpgradeable.sol:36"
          },
          {
            "label": "_owner",
            "offset": 0,
            "slot": "51",
            "type": "t_address",
            "contract": "OwnableUpgradeable",
            "src": "@openzeppelin/contracts-upgradeable/access/OwnableUpgradeable.sol:22"
          },
          {
            "label": "__gap",
            "offset": 0,
            "slot": "52",
            "type": "t_array(t_uint256)49_storage",
            "contract": "OwnableUpgradeable",
            "src": "@openzeppelin/contracts-upgradeable/access/OwnableUpgradeable.sol:94"
          },
          {
            "label": "collectionFee",
            "offset": 0,
            "slot": "101",
            "type": "t_mapping(t_address,t_uint16)",
            "contract": "MarketFee",
            "src": "contracts/market-fee/MarketFee.sol:14"
          }
        ],
        "types": {
          "t_address": {
            "label": "address",
            "numberOfBytes": "20"
          },
          "t_array(t_uint256)49_storage": {
            "label": "uint256[49]",
            "numberOfBytes": "1568"
          },
          "t_array(t_uint256)50_storage": {
            "label": "uint256[50]",
            "numberOfBytes": "1600"
          },
          "t_bool": {
            "label": "bool",
            "numberOfBytes": "1"
          },
          "t_mapping(t_address,t_uint16)": {
            "label": "mapping(address => uint16)",
            "numberOfBytes": "32"
          },
          "t_uint16": {
            "label": "uint16",
            "numberOfBytes": "2"
          },
          "t_uint256": {
            "label": "uint256",
            "numberOfBytes": "32"
          },
          "t_uint8": {
            "label": "uint8",
            "numberOfBytes": "1"
          }
        }
      }
    },
    "eeb82f7be1755478791c78a865c74b245809ac29673d76005011752f439d859a": {
      "address": "0x47B429626600CfFaF6E1F4A26334CCdCb3069b62",
      "txHash": "0x4ff9e892622df768ed2b57a8f6ea04774d400d083be36b3c0fee18ac6c28e708",
      "layout": {
        "solcVersion": "0.8.17",
        "storage": [
          {
            "label": "_initialized",
            "offset": 0,
            "slot": "0",
            "type": "t_uint8",
            "contract": "Initializable",
            "src": "@openzeppelin/contracts-upgradeable/proxy/utils/Initializable.sol:62",
            "retypedFrom": "bool"
          },
          {
            "label": "_initializing",
            "offset": 1,
            "slot": "0",
            "type": "t_bool",
            "contract": "Initializable",
            "src": "@openzeppelin/contracts-upgradeable/proxy/utils/Initializable.sol:67"
          },
          {
            "label": "_HASHED_NAME",
            "offset": 0,
            "slot": "1",
            "type": "t_bytes32",
            "contract": "EIP712Upgradeable",
            "src": "@openzeppelin/contracts-upgradeable/utils/cryptography/EIP712Upgradeable.sol:32"
          },
          {
            "label": "_HASHED_VERSION",
            "offset": 0,
            "slot": "2",
            "type": "t_bytes32",
            "contract": "EIP712Upgradeable",
            "src": "@openzeppelin/contracts-upgradeable/utils/cryptography/EIP712Upgradeable.sol:33"
          },
          {
            "label": "__gap",
            "offset": 0,
            "slot": "3",
            "type": "t_array(t_uint256)50_storage",
            "contract": "EIP712Upgradeable",
            "src": "@openzeppelin/contracts-upgradeable/utils/cryptography/EIP712Upgradeable.sol:120"
          },
          {
            "label": "_status",
            "offset": 0,
            "slot": "53",
            "type": "t_uint256",
            "contract": "ReentrancyGuardUpgradeable",
            "src": "@openzeppelin/contracts-upgradeable/security/ReentrancyGuardUpgradeable.sol:38"
          },
          {
            "label": "__gap",
            "offset": 0,
            "slot": "54",
            "type": "t_array(t_uint256)49_storage",
            "contract": "ReentrancyGuardUpgradeable",
            "src": "@openzeppelin/contracts-upgradeable/security/ReentrancyGuardUpgradeable.sol:80"
          },
          {
            "label": "__gap",
            "offset": 0,
            "slot": "103",
            "type": "t_array(t_uint256)50_storage",
            "contract": "ContextUpgradeable",
            "src": "@openzeppelin/contracts-upgradeable/utils/ContextUpgradeable.sol:36"
          },
          {
            "label": "_owner",
            "offset": 0,
            "slot": "153",
            "type": "t_address",
            "contract": "OwnableUpgradeable",
            "src": "@openzeppelin/contracts-upgradeable/access/OwnableUpgradeable.sol:22"
          },
          {
            "label": "__gap",
            "offset": 0,
            "slot": "154",
            "type": "t_array(t_uint256)49_storage",
            "contract": "OwnableUpgradeable",
            "src": "@openzeppelin/contracts-upgradeable/access/OwnableUpgradeable.sol:94"
          },
          {
            "label": "royaltyRegistry",
            "offset": 0,
            "slot": "203",
            "type": "t_contract(IRoyalty)3877",
            "contract": "Marketplace",
            "src": "contracts/marketplace/Marketplace.sol:27"
          },
          {
            "label": "marketPayee",
            "offset": 0,
            "slot": "204",
            "type": "t_address",
            "contract": "Marketplace",
            "src": "contracts/marketplace/Marketplace.sol:28"
          },
          {
            "label": "marketPercent",
            "offset": 20,
            "slot": "204",
            "type": "t_uint16",
            "contract": "Marketplace",
            "src": "contracts/marketplace/Marketplace.sol:29"
          },
          {
            "label": "reward",
            "offset": 0,
            "slot": "205",
            "type": "t_contract(IReward)3843",
            "contract": "Marketplace",
            "src": "contracts/marketplace/Marketplace.sol:30"
          },
          {
            "label": "feeRegistry",
            "offset": 0,
            "slot": "206",
            "type": "t_contract(IMarketFee)2791",
            "contract": "Marketplace",
            "src": "contracts/marketplace/Marketplace.sol:31"
          }
        ],
        "types": {
          "t_address": {
            "label": "address",
            "numberOfBytes": "20"
          },
          "t_array(t_uint256)49_storage": {
            "label": "uint256[49]",
            "numberOfBytes": "1568"
          },
          "t_array(t_uint256)50_storage": {
            "label": "uint256[50]",
            "numberOfBytes": "1600"
          },
          "t_bool": {
            "label": "bool",
            "numberOfBytes": "1"
          },
          "t_bytes32": {
            "label": "bytes32",
            "numberOfBytes": "32"
          },
          "t_contract(IMarketFee)2791": {
            "label": "contract IMarketFee",
            "numberOfBytes": "20"
          },
          "t_contract(IReward)3843": {
            "label": "contract IReward",
            "numberOfBytes": "20"
          },
          "t_contract(IRoyalty)3877": {
            "label": "contract IRoyalty",
            "numberOfBytes": "20"
          },
          "t_uint16": {
            "label": "uint16",
            "numberOfBytes": "2"
          },
          "t_uint256": {
            "label": "uint256",
            "numberOfBytes": "32"
          },
          "t_uint8": {
            "label": "uint8",
            "numberOfBytes": "1"
          }
        }
      }
    },
    "d8d353e574404e166fa73687810007ec6aff592d67aa477179c020f5ee6cdb58": {
      "address": "0x2Dd568644876d19c3117011d4BAB510d9C9a4Fe0",
      "txHash": "0x1483bacbce42a1129d06a245372b46be197efe80f1ab20bbc76048f8d94a5a10",
      "layout": {
        "solcVersion": "0.8.17",
        "storage": [
          {
            "label": "_initialized",
            "offset": 0,
            "slot": "0",
            "type": "t_uint8",
            "contract": "Initializable",
            "src": "@openzeppelin/contracts-upgradeable/proxy/utils/Initializable.sol:62",
            "retypedFrom": "bool"
          },
          {
            "label": "_initializing",
            "offset": 1,
            "slot": "0",
            "type": "t_bool",
            "contract": "Initializable",
            "src": "@openzeppelin/contracts-upgradeable/proxy/utils/Initializable.sol:67"
          },
          {
            "label": "_status",
            "offset": 0,
            "slot": "1",
            "type": "t_uint256",
            "contract": "ReentrancyGuardUpgradeable",
            "src": "@openzeppelin/contracts-upgradeable/security/ReentrancyGuardUpgradeable.sol:38"
          },
          {
            "label": "__gap",
            "offset": 0,
            "slot": "2",
            "type": "t_array(t_uint256)49_storage",
            "contract": "ReentrancyGuardUpgradeable",
            "src": "@openzeppelin/contracts-upgradeable/security/ReentrancyGuardUpgradeable.sol:80"
          },
          {
            "label": "__gap",
            "offset": 0,
            "slot": "51",
            "type": "t_array(t_uint256)50_storage",
            "contract": "ContextUpgradeable",
            "src": "@openzeppelin/contracts-upgradeable/utils/ContextUpgradeable.sol:36"
          },
          {
            "label": "_owner",
            "offset": 0,
            "slot": "101",
            "type": "t_address",
            "contract": "OwnableUpgradeable",
            "src": "@openzeppelin/contracts-upgradeable/access/OwnableUpgradeable.sol:22"
          },
          {
            "label": "__gap",
            "offset": 0,
            "slot": "102",
            "type": "t_array(t_uint256)49_storage",
            "contract": "OwnableUpgradeable",
            "src": "@openzeppelin/contracts-upgradeable/access/OwnableUpgradeable.sol:94"
          },
          {
            "label": "_HASHED_NAME",
            "offset": 0,
            "slot": "151",
            "type": "t_bytes32",
            "contract": "EIP712Upgradeable",
            "src": "@openzeppelin/contracts-upgradeable/utils/cryptography/EIP712Upgradeable.sol:32"
          },
          {
            "label": "_HASHED_VERSION",
            "offset": 0,
            "slot": "152",
            "type": "t_bytes32",
            "contract": "EIP712Upgradeable",
            "src": "@openzeppelin/contracts-upgradeable/utils/cryptography/EIP712Upgradeable.sol:33"
          },
          {
            "label": "__gap",
            "offset": 0,
            "slot": "153",
            "type": "t_array(t_uint256)50_storage",
            "contract": "EIP712Upgradeable",
            "src": "@openzeppelin/contracts-upgradeable/utils/cryptography/EIP712Upgradeable.sol:120"
          },
          {
            "label": "royaltyRegistry",
            "offset": 0,
            "slot": "203",
            "type": "t_contract(IRoyalty)3924",
            "contract": "Offer",
            "src": "contracts/offer/Offer.sol:28"
          },
          {
            "label": "escrow",
            "offset": 0,
            "slot": "204",
            "type": "t_contract(IEscrow)2851",
            "contract": "Offer",
            "src": "contracts/offer/Offer.sol:29"
          },
          {
            "label": "marketPayee",
            "offset": 0,
            "slot": "205",
            "type": "t_address",
            "contract": "Offer",
            "src": "contracts/offer/Offer.sol:30"
          },
          {
            "label": "marketPercent",
            "offset": 20,
            "slot": "205",
            "type": "t_uint16",
            "contract": "Offer",
            "src": "contracts/offer/Offer.sol:31"
          },
          {
            "label": "reward",
            "offset": 0,
            "slot": "206",
            "type": "t_contract(IReward)3890",
            "contract": "Offer",
            "src": "contracts/offer/Offer.sol:32"
          },
          {
            "label": "marketFeeRegistry",
            "offset": 0,
            "slot": "207",
            "type": "t_contract(IMarketFee)2874",
            "contract": "Offer",
            "src": "contracts/offer/Offer.sol:34"
          }
        ],
        "types": {
          "t_address": {
            "label": "address",
            "numberOfBytes": "20"
          },
          "t_array(t_uint256)49_storage": {
            "label": "uint256[49]",
            "numberOfBytes": "1568"
          },
          "t_array(t_uint256)50_storage": {
            "label": "uint256[50]",
            "numberOfBytes": "1600"
          },
          "t_bool": {
            "label": "bool",
            "numberOfBytes": "1"
          },
          "t_bytes32": {
            "label": "bytes32",
            "numberOfBytes": "32"
          },
          "t_contract(IEscrow)2851": {
            "label": "contract IEscrow",
            "numberOfBytes": "20"
          },
          "t_contract(IMarketFee)2874": {
            "label": "contract IMarketFee",
            "numberOfBytes": "20"
          },
          "t_contract(IReward)3890": {
            "label": "contract IReward",
            "numberOfBytes": "20"
          },
          "t_contract(IRoyalty)3924": {
            "label": "contract IRoyalty",
            "numberOfBytes": "20"
          },
          "t_uint16": {
            "label": "uint16",
            "numberOfBytes": "2"
          },
          "t_uint256": {
            "label": "uint256",
            "numberOfBytes": "32"
          },
          "t_uint8": {
            "label": "uint8",
            "numberOfBytes": "1"
          }
        }
      }
    },
    "03562f3a7e50fd35427af35d2af9b2a152344da202546c9274f5973db75d51e2": {
      "address": "0x6e577a4D7F773D548E42EEE59e88A1587A7D6D84",
      "txHash": "0x626ea616d2bbcc20aaaaa12ffe97108f402b2ead0abf9c1b3d9868d26dd009dd",
      "layout": {
        "solcVersion": "0.8.17",
        "storage": [
          {
            "label": "_initialized",
            "offset": 0,
            "slot": "0",
            "type": "t_uint8",
            "contract": "Initializable",
            "src": "@openzeppelin/contracts-upgradeable/proxy/utils/Initializable.sol:62",
            "retypedFrom": "bool"
          },
          {
            "label": "_initializing",
            "offset": 1,
            "slot": "0",
            "type": "t_bool",
            "contract": "Initializable",
            "src": "@openzeppelin/contracts-upgradeable/proxy/utils/Initializable.sol:67"
          },
          {
            "label": "_HASHED_NAME",
            "offset": 0,
            "slot": "1",
            "type": "t_bytes32",
            "contract": "EIP712Upgradeable",
            "src": "@openzeppelin/contracts-upgradeable/utils/cryptography/EIP712Upgradeable.sol:32"
          },
          {
            "label": "_HASHED_VERSION",
            "offset": 0,
            "slot": "2",
            "type": "t_bytes32",
            "contract": "EIP712Upgradeable",
            "src": "@openzeppelin/contracts-upgradeable/utils/cryptography/EIP712Upgradeable.sol:33"
          },
          {
            "label": "__gap",
            "offset": 0,
            "slot": "3",
            "type": "t_array(t_uint256)50_storage",
            "contract": "EIP712Upgradeable",
            "src": "@openzeppelin/contracts-upgradeable/utils/cryptography/EIP712Upgradeable.sol:120"
          },
          {
            "label": "_status",
            "offset": 0,
            "slot": "53",
            "type": "t_uint256",
            "contract": "ReentrancyGuardUpgradeable",
            "src": "@openzeppelin/contracts-upgradeable/security/ReentrancyGuardUpgradeable.sol:38"
          },
          {
            "label": "__gap",
            "offset": 0,
            "slot": "54",
            "type": "t_array(t_uint256)49_storage",
            "contract": "ReentrancyGuardUpgradeable",
            "src": "@openzeppelin/contracts-upgradeable/security/ReentrancyGuardUpgradeable.sol:80"
          },
          {
            "label": "__gap",
            "offset": 0,
            "slot": "103",
            "type": "t_array(t_uint256)50_storage",
            "contract": "ContextUpgradeable",
            "src": "@openzeppelin/contracts-upgradeable/utils/ContextUpgradeable.sol:36"
          },
          {
            "label": "_owner",
            "offset": 0,
            "slot": "153",
            "type": "t_address",
            "contract": "OwnableUpgradeable",
            "src": "@openzeppelin/contracts-upgradeable/access/OwnableUpgradeable.sol:22"
          },
          {
            "label": "__gap",
            "offset": 0,
            "slot": "154",
            "type": "t_array(t_uint256)49_storage",
            "contract": "OwnableUpgradeable",
            "src": "@openzeppelin/contracts-upgradeable/access/OwnableUpgradeable.sol:94"
          },
          {
            "label": "royaltyRegistry",
            "offset": 0,
            "slot": "203",
            "type": "t_contract(IRoyalty)3888",
            "contract": "Marketplace",
            "src": "contracts/marketplace/Marketplace.sol:27"
          },
          {
            "label": "marketPayee",
            "offset": 0,
            "slot": "204",
            "type": "t_address",
            "contract": "Marketplace",
            "src": "contracts/marketplace/Marketplace.sol:28"
          },
          {
            "label": "marketPercent",
            "offset": 20,
            "slot": "204",
            "type": "t_uint16",
            "contract": "Marketplace",
            "src": "contracts/marketplace/Marketplace.sol:29"
          },
          {
            "label": "reward",
            "offset": 0,
            "slot": "205",
            "type": "t_contract(IReward)3854",
            "contract": "Marketplace",
            "src": "contracts/marketplace/Marketplace.sol:30"
          },
          {
            "label": "feeRegistry",
            "offset": 0,
            "slot": "206",
            "type": "t_contract(IMarketFee)2791",
            "contract": "Marketplace",
            "src": "contracts/marketplace/Marketplace.sol:31"
          }
        ],
        "types": {
          "t_address": {
            "label": "address",
            "numberOfBytes": "20"
          },
          "t_array(t_uint256)49_storage": {
            "label": "uint256[49]",
            "numberOfBytes": "1568"
          },
          "t_array(t_uint256)50_storage": {
            "label": "uint256[50]",
            "numberOfBytes": "1600"
          },
          "t_bool": {
            "label": "bool",
            "numberOfBytes": "1"
          },
          "t_bytes32": {
            "label": "bytes32",
            "numberOfBytes": "32"
          },
          "t_contract(IMarketFee)2791": {
            "label": "contract IMarketFee",
            "numberOfBytes": "20"
          },
          "t_contract(IReward)3854": {
            "label": "contract IReward",
            "numberOfBytes": "20"
          },
          "t_contract(IRoyalty)3888": {
            "label": "contract IRoyalty",
            "numberOfBytes": "20"
          },
          "t_uint16": {
            "label": "uint16",
            "numberOfBytes": "2"
          },
          "t_uint256": {
            "label": "uint256",
            "numberOfBytes": "32"
          },
          "t_uint8": {
            "label": "uint8",
            "numberOfBytes": "1"
          }
        }
      }
    },
    "c2abd8c86cd4235d3665e5f7d79409d1f3ac7ac3e012f4edf62d17e2ba603a8d": {
      "address": "0x8a00fd91f6397aa2DB5b9d6D31f71744561AD453",
      "txHash": "0x427b2ea0c32d079c68c34f2b559e2039276e41022b1f2541b6d28acf567c1f3a",
      "layout": {
        "solcVersion": "0.8.17",
        "storage": [
          {
            "label": "_initialized",
            "offset": 0,
            "slot": "0",
            "type": "t_uint8",
            "contract": "Initializable",
            "src": "@openzeppelin/contracts-upgradeable/proxy/utils/Initializable.sol:62",
            "retypedFrom": "bool"
          },
          {
            "label": "_initializing",
            "offset": 1,
            "slot": "0",
            "type": "t_bool",
            "contract": "Initializable",
            "src": "@openzeppelin/contracts-upgradeable/proxy/utils/Initializable.sol:67"
          },
          {
            "label": "_status",
            "offset": 0,
            "slot": "1",
            "type": "t_uint256",
            "contract": "ReentrancyGuardUpgradeable",
            "src": "@openzeppelin/contracts-upgradeable/security/ReentrancyGuardUpgradeable.sol:38"
          },
          {
            "label": "__gap",
            "offset": 0,
            "slot": "2",
            "type": "t_array(t_uint256)49_storage",
            "contract": "ReentrancyGuardUpgradeable",
            "src": "@openzeppelin/contracts-upgradeable/security/ReentrancyGuardUpgradeable.sol:80"
          },
          {
            "label": "__gap",
            "offset": 0,
            "slot": "51",
            "type": "t_array(t_uint256)50_storage",
            "contract": "ContextUpgradeable",
            "src": "@openzeppelin/contracts-upgradeable/utils/ContextUpgradeable.sol:36"
          },
          {
            "label": "_owner",
            "offset": 0,
            "slot": "101",
            "type": "t_address",
            "contract": "OwnableUpgradeable",
            "src": "@openzeppelin/contracts-upgradeable/access/OwnableUpgradeable.sol:22"
          },
          {
            "label": "__gap",
            "offset": 0,
            "slot": "102",
            "type": "t_array(t_uint256)49_storage",
            "contract": "OwnableUpgradeable",
            "src": "@openzeppelin/contracts-upgradeable/access/OwnableUpgradeable.sol:94"
          },
          {
            "label": "_HASHED_NAME",
            "offset": 0,
            "slot": "151",
            "type": "t_bytes32",
            "contract": "EIP712Upgradeable",
            "src": "@openzeppelin/contracts-upgradeable/utils/cryptography/EIP712Upgradeable.sol:32"
          },
          {
            "label": "_HASHED_VERSION",
            "offset": 0,
            "slot": "152",
            "type": "t_bytes32",
            "contract": "EIP712Upgradeable",
            "src": "@openzeppelin/contracts-upgradeable/utils/cryptography/EIP712Upgradeable.sol:33"
          },
          {
            "label": "__gap",
            "offset": 0,
            "slot": "153",
            "type": "t_array(t_uint256)50_storage",
            "contract": "EIP712Upgradeable",
            "src": "@openzeppelin/contracts-upgradeable/utils/cryptography/EIP712Upgradeable.sol:120"
          },
          {
            "label": "royaltyRegistry",
            "offset": 0,
            "slot": "203",
            "type": "t_contract(IRoyalty)3929",
            "contract": "Offer",
            "src": "contracts/offer/Offer.sol:28"
          },
          {
            "label": "escrow",
            "offset": 0,
            "slot": "204",
            "type": "t_contract(IEscrow)2851",
            "contract": "Offer",
            "src": "contracts/offer/Offer.sol:29"
          },
          {
            "label": "marketPayee",
            "offset": 0,
            "slot": "205",
            "type": "t_address",
            "contract": "Offer",
            "src": "contracts/offer/Offer.sol:30"
          },
          {
            "label": "marketPercent",
            "offset": 20,
            "slot": "205",
            "type": "t_uint16",
            "contract": "Offer",
            "src": "contracts/offer/Offer.sol:31"
          },
          {
            "label": "reward",
            "offset": 0,
            "slot": "206",
            "type": "t_contract(IReward)3895",
            "contract": "Offer",
            "src": "contracts/offer/Offer.sol:32"
          },
          {
            "label": "marketFeeRegistry",
            "offset": 0,
            "slot": "207",
            "type": "t_contract(IMarketFee)2874",
            "contract": "Offer",
            "src": "contracts/offer/Offer.sol:34"
          }
        ],
        "types": {
          "t_address": {
            "label": "address",
            "numberOfBytes": "20"
          },
          "t_array(t_uint256)49_storage": {
            "label": "uint256[49]",
            "numberOfBytes": "1568"
          },
          "t_array(t_uint256)50_storage": {
            "label": "uint256[50]",
            "numberOfBytes": "1600"
          },
          "t_bool": {
            "label": "bool",
            "numberOfBytes": "1"
          },
          "t_bytes32": {
            "label": "bytes32",
            "numberOfBytes": "32"
          },
          "t_contract(IEscrow)2851": {
            "label": "contract IEscrow",
            "numberOfBytes": "20"
          },
          "t_contract(IMarketFee)2874": {
            "label": "contract IMarketFee",
            "numberOfBytes": "20"
          },
          "t_contract(IReward)3895": {
            "label": "contract IReward",
            "numberOfBytes": "20"
          },
          "t_contract(IRoyalty)3929": {
            "label": "contract IRoyalty",
            "numberOfBytes": "20"
          },
          "t_uint16": {
            "label": "uint16",
            "numberOfBytes": "2"
          },
          "t_uint256": {
            "label": "uint256",
            "numberOfBytes": "32"
          },
          "t_uint8": {
            "label": "uint8",
            "numberOfBytes": "1"
          }
        }
      }
    }
  }
}
