{
  "manifestVersion": "3.2",
  "admin": {
    "address": "0x4177f5b3355F4F1765171AdDf88acF7F32442736",
    "txHash": "0x28215ba3d07caa78aa58ebf6573f4f9e2a6659db2b564ef6e65b03327c6a2eb5"
  },
  "proxies": [
    {
      "address": "0x327dbe3cD0b4Ce6864A109176591a0A1CfF00576",
      "txHash": "0xd9fe025d6cd168e65e27b8dcbae04ef3015d8d85b2390c86cc30ee19bc99860a",
      "kind": "transparent"
    },
    {
      "address": "0x18F220286a206b4D06a5156e9d254cD4ee8f97c0",
      "txHash": "0xb7737ad35ec3711f18d7c2e38fe5feae33b7a3847701e2d24065cf36ad325df1",
      "kind": "transparent"
    },
    {
      "address": "0xBacc6596E29a9848B9F6F4F783Ab2C2Bbf94d9eB",
      "txHash": "0x1c1765a0b51812499c7f0d972318c60905f373b17f7a9fd0e4b6f65c18e63929",
      "kind": "transparent"
    },
    {
      "address": "0x7Bfba5C246E7978Dfe78A60700f0Fb067053169a",
      "txHash": "0xa8082efc5c1bbc38ebdaf7e44e11c0e2ae00813ffc658a383dc1cbef28c03089",
      "kind": "transparent"
    }
  ],
  "impls": {
    "68784f55083f9f26f39e710d0e09e77ef2ea27c0301c36f571dec2e3c7889ff4": {
      "address": "0xbB3fe7EB452D47a294799742cDF60AeabAc8f198",
      "txHash": "0xc63cd31e37650982e6dcdbd67358dde8987fbf58711c61db513a2474c36a7824",
      "layout": {
        "solcVersion": "0.8.17",
        "storage": [
          {
            "label": "_initialized",
            "offset": 0,
            "slot": "0",
            "type": "t_uint8",
            "contract": "Initializable",
            "src": "@openzeppelin/contracts-upgradeable/proxy/utils/Initializable.sol:62",
            "retypedFrom": "bool"
          },
          {
            "label": "_initializing",
            "offset": 1,
            "slot": "0",
            "type": "t_bool",
            "contract": "Initializable",
            "src": "@openzeppelin/contracts-upgradeable/proxy/utils/Initializable.sol:67"
          },
          {
            "label": "_HASHED_NAME",
            "offset": 0,
            "slot": "1",
            "type": "t_bytes32",
            "contract": "EIP712Upgradeable",
            "src": "@openzeppelin/contracts-upgradeable/utils/cryptography/EIP712Upgradeable.sol:32"
          },
          {
            "label": "_HASHED_VERSION",
            "offset": 0,
            "slot": "2",
            "type": "t_bytes32",
            "contract": "EIP712Upgradeable",
            "src": "@openzeppelin/contracts-upgradeable/utils/cryptography/EIP712Upgradeable.sol:33"
          },
          {
            "label": "__gap",
            "offset": 0,
            "slot": "3",
            "type": "t_array(t_uint256)50_storage",
            "contract": "EIP712Upgradeable",
            "src": "@openzeppelin/contracts-upgradeable/utils/cryptography/EIP712Upgradeable.sol:120"
          },
          {
            "label": "_status",
            "offset": 0,
            "slot": "53",
            "type": "t_uint256",
            "contract": "ReentrancyGuardUpgradeable",
            "src": "@openzeppelin/contracts-upgradeable/security/ReentrancyGuardUpgradeable.sol:38"
          },
          {
            "label": "__gap",
            "offset": 0,
            "slot": "54",
            "type": "t_array(t_uint256)49_storage",
            "contract": "ReentrancyGuardUpgradeable",
            "src": "@openzeppelin/contracts-upgradeable/security/ReentrancyGuardUpgradeable.sol:80"
          },
          {
            "label": "__gap",
            "offset": 0,
            "slot": "103",
            "type": "t_array(t_uint256)50_storage",
            "contract": "ContextUpgradeable",
            "src": "@openzeppelin/contracts-upgradeable/utils/ContextUpgradeable.sol:36"
          },
          {
            "label": "_owner",
            "offset": 0,
            "slot": "153",
            "type": "t_address",
            "contract": "OwnableUpgradeable",
            "src": "@openzeppelin/contracts-upgradeable/access/OwnableUpgradeable.sol:22"
          },
          {
            "label": "__gap",
            "offset": 0,
            "slot": "154",
            "type": "t_array(t_uint256)49_storage",
            "contract": "OwnableUpgradeable",
            "src": "@openzeppelin/contracts-upgradeable/access/OwnableUpgradeable.sol:94"
          },
          {
            "label": "royaltyRegistry",
            "offset": 0,
            "slot": "203",
            "type": "t_contract(IRoyalty)6684",
            "contract": "Marketplace",
            "src": "contracts/marketplace/Marketplace.sol:21"
          },
          {
            "label": "marketPayee",
            "offset": 0,
            "slot": "204",
            "type": "t_address",
            "contract": "Marketplace",
            "src": "contracts/marketplace/Marketplace.sol:22"
          },
          {
            "label": "marketPercent",
            "offset": 20,
            "slot": "204",
            "type": "t_uint8",
            "contract": "Marketplace",
            "src": "contracts/marketplace/Marketplace.sol:23"
          }
        ],
        "types": {
          "t_address": {
            "label": "address",
            "numberOfBytes": "20"
          },
          "t_array(t_uint256)49_storage": {
            "label": "uint256[49]",
            "numberOfBytes": "1568"
          },
          "t_array(t_uint256)50_storage": {
            "label": "uint256[50]",
            "numberOfBytes": "1600"
          },
          "t_bool": {
            "label": "bool",
            "numberOfBytes": "1"
          },
          "t_bytes32": {
            "label": "bytes32",
            "numberOfBytes": "32"
          },
          "t_contract(IRoyalty)6684": {
            "label": "contract IRoyalty",
            "numberOfBytes": "20"
          },
          "t_uint256": {
            "label": "uint256",
            "numberOfBytes": "32"
          },
          "t_uint8": {
            "label": "uint8",
            "numberOfBytes": "1"
          }
        }
      }
    },
    "b69d44b1fea003e9376d477128fde2a8cde2cf625da45c65f81be60883533869": {
      "address": "0xE30ca465a0AD54653B87EA54Db966089811CdE39",
      "txHash": "0xbe67434a8890df8d8b1a308fe20586cd8154bd198d120b30077d1ed146674697",
      "layout": {
        "solcVersion": "0.8.17",
        "storage": [
          {
            "label": "_initialized",
            "offset": 0,
            "slot": "0",
            "type": "t_uint8",
            "contract": "Initializable",
            "src": "@openzeppelin/contracts-upgradeable/proxy/utils/Initializable.sol:62",
            "retypedFrom": "bool"
          },
          {
            "label": "_initializing",
            "offset": 1,
            "slot": "0",
            "type": "t_bool",
            "contract": "Initializable",
            "src": "@openzeppelin/contracts-upgradeable/proxy/utils/Initializable.sol:67"
          },
          {
            "label": "__gap",
            "offset": 0,
            "slot": "1",
            "type": "t_array(t_uint256)50_storage",
            "contract": "ContextUpgradeable",
            "src": "@openzeppelin/contracts-upgradeable/utils/ContextUpgradeable.sol:36"
          },
          {
            "label": "_owner",
            "offset": 0,
            "slot": "51",
            "type": "t_address",
            "contract": "OwnableUpgradeable",
            "src": "@openzeppelin/contracts-upgradeable/access/OwnableUpgradeable.sol:22"
          },
          {
            "label": "__gap",
            "offset": 0,
            "slot": "52",
            "type": "t_array(t_uint256)49_storage",
            "contract": "OwnableUpgradeable",
            "src": "@openzeppelin/contracts-upgradeable/access/OwnableUpgradeable.sol:94"
          },
          {
            "label": "collectionPayee",
            "offset": 0,
            "slot": "101",
            "type": "t_mapping(t_address,t_address)",
            "contract": "Royalty",
            "src": "contracts/royalty/Royalty.sol:15"
          },
          {
            "label": "collectionRoyalty",
            "offset": 0,
            "slot": "102",
            "type": "t_mapping(t_address,t_uint8)",
            "contract": "Royalty",
            "src": "contracts/royalty/Royalty.sol:16"
          }
        ],
        "types": {
          "t_address": {
            "label": "address",
            "numberOfBytes": "20"
          },
          "t_array(t_uint256)49_storage": {
            "label": "uint256[49]",
            "numberOfBytes": "1568"
          },
          "t_array(t_uint256)50_storage": {
            "label": "uint256[50]",
            "numberOfBytes": "1600"
          },
          "t_bool": {
            "label": "bool",
            "numberOfBytes": "1"
          },
          "t_mapping(t_address,t_address)": {
            "label": "mapping(address => address)",
            "numberOfBytes": "32"
          },
          "t_mapping(t_address,t_uint8)": {
            "label": "mapping(address => uint8)",
            "numberOfBytes": "32"
          },
          "t_uint256": {
            "label": "uint256",
            "numberOfBytes": "32"
          },
          "t_uint8": {
            "label": "uint8",
            "numberOfBytes": "1"
          }
        }
      }
    }
  }
}
